<?xml version="1.0" encoding="utf-8"?>
<!-- Generator: Adobe Illustrator 16.0.0, SVG Export Plug-In . SVG Version: 6.00 Build 0)  -->
<!DOCTYPE svg PUBLIC "-//W3C//DTD SVG 1.1//EN" "http://www.w3.org/Graphics/SVG/1.1/DTD/svg11.dtd">
<svg version="1.1" id="Layer_1" xmlns="http://www.w3.org/2000/svg" xmlns:xlink="http://www.w3.org/1999/xlink" x="0px" y="0px"
	 width="500px" height="500px" viewBox="0 0 500 500" enable-background="new 0 0 500 500" xml:space="preserve">
<g>
	<path fill-rule="evenodd" clip-rule="evenodd" fill="#1876B5" d="M328.883,184.546c5.766,0,10.703-0.357,15.57,0.065
		c16.438,1.431,29.023,13.574,29.143,29.79c0.377,52.413,0.432,104.835-0.049,157.245c-0.164,17.969-14.021,29.516-34.271,29.748
		c-27.652,0.316-55.305,0.088-82.959,0.09c-30.953,0.002-61.91,0.123-92.863-0.041c-25.098-0.135-37.228-12.307-37.29-37.348
		c-0.106-44.162-0.029-88.326-0.029-132.488c0-37.844,7.149-45.46,46.942-47.794c0-11.562-0.663-23.38,0.121-35.103
		c2.603-38.986,32.093-68.208,71.979-71.97c35.853-3.38,71.448,21.777,79.69,58.409C328.336,150.58,327.59,166.959,328.883,184.546z
		 M298.381,183.949c0-9.59,0.143-17.758-0.059-25.913c-0.107-4.507-0.521-9.043-1.266-13.486
		c-3.562-21.234-21.18-36.877-43.488-38.816c-20.716-1.805-42.839,11.046-47.896,31.179c-3.773,15.021-3.01,31.184-4.284,47.037
		C235.122,183.949,265.896,183.949,298.381,183.949z M250.375,325.363c16.285-0.094,30.953-14.852,30.854-31.045
		c-0.096-16.229-14.881-30.809-31.159-30.734c-16.483,0.074-30.582,14.416-30.515,31.039
		C219.622,311.189,233.93,325.459,250.375,325.363z"/>
	<g>
		<g>
			<path fill-rule="evenodd" clip-rule="evenodd" fill="#599940" d="M154.268,418.684c-27.761-0.15-41.178-13.613-41.247-41.312
				c-0.026-10.789-0.039-21.58-0.049-32.37c-18.905-26.79-29.995-59.384-29.995-94.542c0-25.235,5.722-49.146,15.94-70.545
				l-66.489-31.045C18.047,179.733,10,214.152,10,250.459C10,376.186,106.311,479.361,229.042,490l6.234-71.256
				C208.273,418.775,181.27,418.826,154.268,418.684z"/>
		</g>
		<path fill-rule="evenodd" clip-rule="evenodd" fill="#599940" d="M244.664,59.521c32.098-3.026,64.002,14.63,79.836,42.953
			c24.686,12.198,45.898,30.257,61.756,52.351l60.314-42.338C403.159,50.516,331.308,10,250.001,10
			C168.689,10,96.834,50.521,53.422,112.499l60.32,42.332c15.966-22.247,37.359-40.41,62.264-52.611
			C189.562,78.476,214.407,62.375,244.664,59.521z"/>
		<path fill-rule="evenodd" clip-rule="evenodd" fill="#599940" d="M467.567,148.856l-66.486,31.05
			c10.221,21.398,15.945,45.313,15.945,70.553c0,35.221-11.13,67.865-30.097,94.682c-0.062,13.527-0.147,27.057-0.271,40.583
			c-0.182,19.876-15.51,32.649-37.908,32.907c-28.006,0.318-56.01,0.141-84.017,0.107l6.24,71.26
			C393.697,479.352,490,376.182,490,250.459C490,214.147,481.951,179.724,467.567,148.856z"/>
	</g>
</g>
</svg>
