<?xml version="1.0" encoding="UTF-8" standalone="no"?>
<!-- Generator: Adobe Illustrator 16.0.0, SVG Export Plug-In . SVG Version: 6.00 Build 0)  -->

<svg
   xmlns:dc="http://purl.org/dc/elements/1.1/"
   xmlns:cc="http://creativecommons.org/ns#"
   xmlns:rdf="http://www.w3.org/1999/02/22-rdf-syntax-ns#"
   xmlns:svg="http://www.w3.org/2000/svg"
   xmlns="http://www.w3.org/2000/svg"
   xmlns:sodipodi="http://sodipodi.sourceforge.net/DTD/sodipodi-0.dtd"
   xmlns:inkscape="http://www.inkscape.org/namespaces/inkscape"
   version="1.1"
   id="Layer_1"
   x="0px"
   y="0px"
   width="500px"
   height="500px"
   viewBox="0 0 500 500"
   enable-background="new 0 0 500 500"
   xml:space="preserve"
   inkscape:version="0.91 r13725"
   sodipodi:docname="wifi-off-2.svg"><metadata
     id="metadata19"><rdf:RDF><cc:Work
         rdf:about=""><dc:format>image/svg+xml</dc:format><dc:type
           rdf:resource="http://purl.org/dc/dcmitype/StillImage" /><dc:title /></cc:Work></rdf:RDF></metadata><defs
     id="defs17" /><sodipodi:namedview
     pagecolor="#ffffff"
     bordercolor="#666666"
     borderopacity="1"
     objecttolerance="10"
     gridtolerance="10"
     guidetolerance="10"
     inkscape:pageopacity="0"
     inkscape:pageshadow="2"
     inkscape:window-width="1280"
     inkscape:window-height="751"
     id="namedview15"
     showgrid="false"
     inkscape:zoom="0.48988042"
     inkscape:cx="491.63906"
     inkscape:cy="205.82519"
     inkscape:window-x="0"
     inkscape:window-y="1"
     inkscape:window-maximized="1"
     inkscape:current-layer="Layer_1" /><path
     style="fill:#000000"
     d="m 234.81055,413.34025 c -9.91722,-4.31626 -19.9063,-17.47957 -22.05375,-29.06185 -2.38266,-12.85089 5.39276,-29.44229 17.22498,-36.755 12.29806,-7.60061 33.05213,-6.34148 42.60728,2.58501 20.74398,19.37911 16.94376,50.98798 -7.4627,62.07223 -12.01119,5.45488 -19.76535,5.75149 -30.3158,1.15964 z M 349.92051,313.8736 c -28.38015,-26.55781 -64.81644,-40.93045 -103.59301,-40.86319 -37.12353,0.0642 -67.57823,10.67533 -97.62362,34.01376 l -14.44093,11.21726 -7.28302,-6.97758 -7.28307,-6.9776 6.83449,-7.2313 c 9.33998,-9.88226 33.05017,-25.81513 48.58708,-32.64976 45.15614,-19.86399 103.61573,-18.77388 146.44689,2.7308 16.33643,8.20219 40.26688,25.26506 50.66009,36.12167 l 8.07286,8.43275 -8.07286,7.75071 -8.07283,7.75069 -14.23206,-13.31821 z m 56.41888,-58.80173 c -47.88708,-47.91433 -121.68473,-73.01407 -188.5999,-64.14582 -45.3959,6.0163 -91.55308,26.8688 -124.995017,56.46918 l -14.558299,12.88597 -6.531863,-6.81779 c -3.592526,-3.74979 -6.531855,-8.01693 -6.531855,-9.48254 0,-3.40719 21.709062,-21.88254 40.946024,-34.84682 87.88096,-59.22522 204.40158,-56.43948 288.88343,6.9065 10.3577,7.76641 23.79883,19.27457 29.86909,25.57364 l 11.03686,11.45288 -7.15838,7.47177 c -3.93712,4.10946 -7.78699,7.3539 -8.55529,7.20985 -0.76831,-0.14393 -6.98046,-5.8486 -13.80479,-12.67682 z m 50.87235,-64.32128 C 413.12492,149.37552 358.05831,121.50478 298.737,110.54214 c -26.72193,-4.93824 -77.75812,-4.93477 -106.09777,0.007 -56.44826,9.84376 -114.546609,38.7365 -156.181081,77.67003 l -14.188423,13.26801 -7.732178,-7.86639 -7.732171,-7.8664 17.151824,-16.05824 c 42.231066,-39.53856 98.251259,-68.04239 158.460319,-80.626906 35.7135,-7.464585 89.8693,-7.492504 125.12631,-0.06453 64.7467,13.640966 116.98292,40.819236 167.03895,86.909606 l 18.61184,17.13729 -7.28861,7.70039 c -4.00875,4.23518 -7.91724,7.64745 -8.68553,7.58281 -0.76829,-0.0645 -9.77223,-7.9777 -20.00874,-17.58458 z"
     id="path4198"
     inkscape:connector-curvature="0" /></svg>